{ 
    "_id" : ObjectId("5bb25ee3dbe91527b0a08168"), 
    "updatedAt" : ISODate("2018-10-01T17:52:35.506+0000"), 
    "createdAt" : ISODate("2018-10-01T17:52:35.506+0000"), 
    "name" : "Super Admin", 
    "__v" : NumberInt(0)
}
{ 
    "_id" : ObjectId("5bb25f36dbe91527b0a08169"), 
    "updatedAt" : ISODate("2018-10-01T17:53:58.260+0000"), 
    "createdAt" : ISODate("2018-10-01T17:53:58.260+0000"), 
    "name" : "Group Admin", 
    "__v" : NumberInt(0)
}
